StudentID,Name,Assignment1,Assignment2,Assignment3
s123456,Michael Andersen,7,7,4
s123789,Bettina Petersen,12,10,10
s123468,Thomas Nielsen,-3,7,2
s123579,Marie Hansen,10,12,12
s123457,Michael Andersen,7,7,4
s123780,Bettina Petersen,12,10,10
s123469,Thomas Nielsen,-3,7,2
s123580,Marie Hansen,10,12,12
s123457,Michael Andersen,7,7,4
s123781,Bettina Petersen,3,10,10
s123467,Thomas Nielsen,-3,,2
s123582,Marie Hansen,02,2,00
s123457,Michael Andersen,7,7,4